{
  "users": [
    {
      "username": "first",
      "translations": [
        {
          "translation": "one",
          "deleted": false
        },
        {
          "translation": "two",
          "deleted": false
        }
      ],
      "id": 1
    },
    {
      "username": "a",
      "translations": [
        {
          "translation": "a",
          "deleted": false
        },
        {
          "translation": "b",
          "deleted": false
        }
      ],
      "id": 2
    }
  ]
}